10.1007/bfb0097754
10.1002/9783527621385.ch17
10.1021/ba-1972-0109.ch004
10.1484/m.sem-eb.4.00123
10.3726/978-3-0352-6292-6/360
10.1515/9783111610009-031
10.1515/9780691215099-013
10.7765/9781526100160.00002
10.4324/9781315257501-8
10.1007/978-3-642-41714-6_210651
