10.1159/000517444
10.1109/jssc.1979.1051312
10.1002/ps.2780250104
10.1117/12.2527889
10.1023/a:1022653828617
10.1016/j.bbaexp.2005.02.006
10.4000/books.pup.49063
10.1515/freq.1949.3.6.184
10.1016/0090-1229(85)90027-3
10.1017/s0001867800047406
